id,name,model_id:id,group_id:id,perm_read,perm_write,perm_create,perm_unlink
kontrabon_order_admin, Model do admin access,model_kontrabon_order,tj_kontrabon_order.group_manager,1,1,1,1
kontrabon_order_user, Model do user access,model_kontrabon_order,tj_kontrabon_order.group_user,1,1,1,0
